%YAML 1.1
%TAG !u! tag:unity3d.com,2011:
--- !u!1045 &1
EditorBuildSettings:
  m_ObjectHideFlags: 0
  serializedVersion: 2
  m_Scenes: []
  m_configObjects:
    Unity.XR.WindowsMR.Settings: {fileID: 11400000, guid: 28725bcb61fc0bf4d94582bd6163e69a, type: 2}
    com.unity.xr.management.loader_settings: {fileID: 11400000, guid: ed65ce55dc4868649a47b2587d633019, type: 2}
    com.unity.xr.openxr.settings4: {fileID: 11400000, guid: c9bb45be94d18be4e9f455bc6249db8b, type: 2}
